%YAML 1.1
%TAG !u! tag:unity3d.com,2011:
--- !u!114 &11400000
MonoBehaviour:
  m_ObjectHideFlags: 0
  m_CorrespondingSourceObject: {fileID: 0}
  m_PrefabInstance: {fileID: 0}
  m_PrefabAsset: {fileID: 0}
  m_GameObject: {fileID: 0}
  m_Enabled: 1
  m_EditorHideFlags: 0
  m_Script: {fileID: 11500000, guid: ddeeab65ce70be24090eed5681c8f632, type: 3}
  m_Name: Mat 54
  m_EditorClassIdentifier: 
  title: 
  mainImage: {fileID: 0}
  mainText: "W wagonie metra jest 56 miejsc siedz\u0105cych. 7 z tych miejsc by\u0142o
    wolnych. 4 osoby sta\u0142y. Ile os\xF3b jecha\u0142o w tym wagonie?"
  isFourAnswerTask: 0
  btnAnswerTextArray: []
  btnAnswerSpriteArray: []
  isInputAnswerTask: 1
  answer: 53
  hint: 
  solvedTask: '56 - 7 = 49

    49 + 4 = 53'
  solvedTaskImage: {fileID: 0}
