%YAML 1.1
%TAG !u! tag:unity3d.com,2011:
--- !u!114 &11400000
MonoBehaviour:
  m_ObjectHideFlags: 0
  m_CorrespondingSourceObject: {fileID: 0}
  m_PrefabInstance: {fileID: 0}
  m_PrefabAsset: {fileID: 0}
  m_GameObject: {fileID: 0}
  m_Enabled: 1
  m_EditorHideFlags: 0
  m_Script: {fileID: 11500000, guid: ddeeab65ce70be24090eed5681c8f632, type: 3}
  m_Name: Mat 60
  m_EditorClassIdentifier: 
  title: 
  mainImage: {fileID: 0}
  mainText: "Babcia sprzeda\u0142a 12 p\xF3\u0142litrowych s\u0142oik\xF3w z miodem
    i 8 \u0107wier\u0107litrowych. Ile litr\xF3w miodu sprzeda\u0142a babcia?"
  isFourAnswerTask: 0
  btnAnswerTextArray: []
  btnAnswerSpriteArray: []
  isInputAnswerTask: 1
  answer: 8
  hint: 
  solvedTask: 
  solvedTaskImage: {fileID: 0}
