%YAML 1.1
%TAG !u! tag:unity3d.com,2011:
--- !u!114 &11400000
MonoBehaviour:
  m_ObjectHideFlags: 0
  m_CorrespondingSourceObject: {fileID: 0}
  m_PrefabInstance: {fileID: 0}
  m_PrefabAsset: {fileID: 0}
  m_GameObject: {fileID: 0}
  m_Enabled: 1
  m_EditorHideFlags: 0
  m_Script: {fileID: 11500000, guid: ddeeab65ce70be24090eed5681c8f632, type: 3}
  m_Name: Mat 171
  m_EditorClassIdentifier: 
  title: 
  mainImage: {fileID: 0}
  mainText: "Do sumy liczb 12 i 9 dodaj liczb\u0119 o 4 razy wi\u0119ksz\u0105 od
    6."
  isFourAnswerTask: 0
  btnAnswerTextArray: []
  btnAnswerSpriteArray: []
  isInputAnswerTask: 1
  answer: 45
  hint: 
  solvedTask: '12 + 9 = 21

    4 * 6 = 24

    21 + 24 = 45'
  solvedTaskImage: {fileID: 0}
