%YAML 1.1
%TAG !u! tag:unity3d.com,2011:
--- !u!114 &11400000
MonoBehaviour:
  m_ObjectHideFlags: 0
  m_CorrespondingSourceObject: {fileID: 0}
  m_PrefabInstance: {fileID: 0}
  m_PrefabAsset: {fileID: 0}
  m_GameObject: {fileID: 0}
  m_Enabled: 1
  m_EditorHideFlags: 0
  m_Script: {fileID: 11500000, guid: ddeeab65ce70be24090eed5681c8f632, type: 3}
  m_Name: Mat 63
  m_EditorClassIdentifier: 
  title: 
  mainImage: {fileID: 0}
  mainText: "Do sklepu zam\xF3wiono 64 gry komputerowe zapakowane do 8 jednakowych
    paczek. Tego dnia sprzedano 4 pe\u0142ne paczki i 3 pojedy\u0144cze gry. Ile gier
    pozosta\u0142o w sklepie?"
  isFourAnswerTask: 0
  btnAnswerTextArray: []
  btnAnswerSpriteArray: []
  isInputAnswerTask: 1
  answer: 29
  hint: 
  solvedTask: 
  solvedTaskImage: {fileID: 0}
