%YAML 1.1
%TAG !u! tag:unity3d.com,2011:
--- !u!114 &11400000
MonoBehaviour:
  m_ObjectHideFlags: 0
  m_CorrespondingSourceObject: {fileID: 0}
  m_PrefabInstance: {fileID: 0}
  m_PrefabAsset: {fileID: 0}
  m_GameObject: {fileID: 0}
  m_Enabled: 1
  m_EditorHideFlags: 0
  m_Script: {fileID: 11500000, guid: ddeeab65ce70be24090eed5681c8f632, type: 3}
  m_Name: Geometria 100
  m_EditorClassIdentifier: 
  title: 
  mainImage: {fileID: 0}
  mainText: "Oblicz obw\xF3d prostok\u0105ta kt\xF3rego bok a wynosi 3cm, a drugi
    bok b jest 3 razy d\u0142u\u017Cszy od pierwszego?"
  isFourAnswerTask: 0
  btnAnswerTextArray: []
  btnAnswerSpriteArray: []
  isInputAnswerTask: 1
  answer: 24
  hint: 
  solvedTask: 
  solvedTaskImage: {fileID: 0}
