%YAML 1.1
%TAG !u! tag:unity3d.com,2011:
--- !u!114 &11400000
MonoBehaviour:
  m_ObjectHideFlags: 0
  m_CorrespondingSourceObject: {fileID: 0}
  m_PrefabInstance: {fileID: 0}
  m_PrefabAsset: {fileID: 0}
  m_GameObject: {fileID: 0}
  m_Enabled: 1
  m_EditorHideFlags: 0
  m_Script: {fileID: 11500000, guid: ddeeab65ce70be24090eed5681c8f632, type: 3}
  m_Name: Geometria 157
  m_EditorClassIdentifier: 
  title: 
  mainImage: {fileID: 0}
  mainText: "Pole prostok\u0105ta ma 300cm2.\nOblicz jego szeroko\u015B\u0107 (podana
    w cm), je\u017Celi d\u0142ugo\u015B\u0107 r\xF3wna jest 2dm."
  isFourAnswerTask: 0
  btnAnswerTextArray: []
  btnAnswerSpriteArray: []
  isInputAnswerTask: 1
  answer: 15
  hint: 
  solvedTask: 
  solvedTaskImage: {fileID: 0}
