%YAML 1.1
%TAG !u! tag:unity3d.com,2011:
--- !u!114 &11400000
MonoBehaviour:
  m_ObjectHideFlags: 0
  m_CorrespondingSourceObject: {fileID: 0}
  m_PrefabInstance: {fileID: 0}
  m_PrefabAsset: {fileID: 0}
  m_GameObject: {fileID: 0}
  m_Enabled: 1
  m_EditorHideFlags: 0
  m_Script: {fileID: 11500000, guid: ddeeab65ce70be24090eed5681c8f632, type: 3}
  m_Name: Mat 153
  m_EditorClassIdentifier: 
  title: 
  mainImage: {fileID: 0}
  mainText: "Dwaj s\u0105siedzi maj\u0105 dzia\u0142ki w kszta\u0142cie kwadrat\xF3w,
    kt\xF3re stykaj\u0105 si\u0119 jednym bokiem.\nZakupili ju\u017C 100 metr\xF3w
    siatki, aby ogrodzi\u0107 obie dzia\u0142ki razem.\nIle metr\xF3w siatki musz\u0105
    jeszcze dokupi\u0107 skoro na jeden bok potrzeba 50m siatki?"
  isFourAnswerTask: 0
  btnAnswerTextArray: []
  btnAnswerSpriteArray: []
  isInputAnswerTask: 1
  answer: 250
  hint: 
  solvedTask: 
  solvedTaskImage: {fileID: 0}
