%YAML 1.1
%TAG !u! tag:unity3d.com,2011:
--- !u!114 &11400000
MonoBehaviour:
  m_ObjectHideFlags: 0
  m_CorrespondingSourceObject: {fileID: 0}
  m_PrefabInstance: {fileID: 0}
  m_PrefabAsset: {fileID: 0}
  m_GameObject: {fileID: 0}
  m_Enabled: 1
  m_EditorHideFlags: 0
  m_Script: {fileID: 11500000, guid: ddeeab65ce70be24090eed5681c8f632, type: 3}
  m_Name: Mat 50
  m_EditorClassIdentifier: 
  title: 
  mainImage: {fileID: 0}
  mainText: "Krzysiek ma 24z\u0142. za kt\xF3re chce kupi\u0107 jak najwi\u0119cej
    lod\xF3w.\n1 l\xF3d kosztuje 4z\u0142. \nIle lod\xF3w mo\u017Ce kupi\u0107 Krzysiek?\r"
  isFourAnswerTask: 0
  btnAnswerTextArray: []
  btnAnswerSpriteArray: []
  isInputAnswerTask: 1
  answer: 6
  hint: 
  solvedTask: "Krzysiek ma 24z\u0142. za kt\xF3re chce kupi\u0107 jak najwi\u0119cej
    lod\xF3w.\n1 l\xF3d kosztuje 4z\u0142. \nIle lod\xF3w mo\u017Ce kupi\u0107 Krzysiek?\r\n\n\n24
    z\u0142 : 4z\u0142 = 6"
  solvedTaskImage: {fileID: 0}
