%YAML 1.1
%TAG !u! tag:unity3d.com,2011:
--- !u!114 &11400000
MonoBehaviour:
  m_ObjectHideFlags: 0
  m_CorrespondingSourceObject: {fileID: 0}
  m_PrefabInstance: {fileID: 0}
  m_PrefabAsset: {fileID: 0}
  m_GameObject: {fileID: 0}
  m_Enabled: 1
  m_EditorHideFlags: 0
  m_Script: {fileID: 11500000, guid: ddeeab65ce70be24090eed5681c8f632, type: 3}
  m_Name: Mat 158
  m_EditorClassIdentifier: 
  title: 
  mainImage: {fileID: 0}
  mainText: "Auto ma 4 ko\u0142a.\nAndrzej chce wymieni\u0107 wszystkie opony, kt\xF3re
    kosztuj\u0105 45z\u0142 za sztuk\u0119.\nIle zap\u0142aci za wymian\u0119?"
  isFourAnswerTask: 0
  btnAnswerTextArray: []
  btnAnswerSpriteArray: []
  isInputAnswerTask: 1
  answer: 180
  hint: 
  solvedTask: 
  solvedTaskImage: {fileID: 0}
