%YAML 1.1
%TAG !u! tag:unity3d.com,2011:
--- !u!114 &11400000
MonoBehaviour:
  m_ObjectHideFlags: 0
  m_CorrespondingSourceObject: {fileID: 0}
  m_PrefabInstance: {fileID: 0}
  m_PrefabAsset: {fileID: 0}
  m_GameObject: {fileID: 0}
  m_Enabled: 1
  m_EditorHideFlags: 0
  m_Script: {fileID: 11500000, guid: ddeeab65ce70be24090eed5681c8f632, type: 3}
  m_Name: Mat 156
  m_EditorClassIdentifier: 
  title: 
  mainImage: {fileID: 0}
  mainText: "W dw\xF3ch naczyniach by\u0142o razem 36 litr\xF3w oleju.\nGdy z pierwszego
    naczynia przelano 8 litr\xF3w do drugiego, wtedy w obydwu naczyniach by\u0142a
    ta sama ilo\u015B\u0107 oleju.\r\nIle litr\xF3w oleju by\u0142o w pierwszyn naczyniu?"
  isFourAnswerTask: 0
  btnAnswerTextArray: []
  btnAnswerSpriteArray: []
  isInputAnswerTask: 1
  answer: 26
  hint: 
  solvedTask: 
  solvedTaskImage: {fileID: 0}
