%YAML 1.1
%TAG !u! tag:unity3d.com,2011:
--- !u!114 &11400000
MonoBehaviour:
  m_ObjectHideFlags: 0
  m_CorrespondingSourceObject: {fileID: 0}
  m_PrefabInstance: {fileID: 0}
  m_PrefabAsset: {fileID: 0}
  m_GameObject: {fileID: 0}
  m_Enabled: 1
  m_EditorHideFlags: 0
  m_Script: {fileID: 11500000, guid: ddeeab65ce70be24090eed5681c8f632, type: 3}
  m_Name: Mat 109
  m_EditorClassIdentifier: 
  title: 
  mainImage: {fileID: 0}
  mainText: "Na zabaw\u0119 karnawa\u0142ow\u0105 zakupiono balony. By\u0142o 20 zielonych
    balon\xF3w,\nczerwonych by\u0142o dwa razy wi\u0119cej ni\u017C zielonych,\na
    \u017C\xF3\u0142tych by\u0142o o 7 mniej ni\u017C czerwonych.\nIle by\u0142o wszystkich
    balon\xF3w?"
  isFourAnswerTask: 1
  btnAnswerTextArray:
  - 86
  - 93
  - 98
  - 96
  btnAnswerSpriteArray: []
  isInputAnswerTask: 0
  answer: 93
  hint: 
  solvedTask: 
  solvedTaskImage: {fileID: 0}
