%YAML 1.1
%TAG !u! tag:unity3d.com,2011:
--- !u!114 &11400000
MonoBehaviour:
  m_ObjectHideFlags: 0
  m_CorrespondingSourceObject: {fileID: 0}
  m_PrefabInstance: {fileID: 0}
  m_PrefabAsset: {fileID: 0}
  m_GameObject: {fileID: 0}
  m_Enabled: 1
  m_EditorHideFlags: 0
  m_Script: {fileID: 11500000, guid: ddeeab65ce70be24090eed5681c8f632, type: 3}
  m_Name: Liczby rzymskie 1
  m_EditorClassIdentifier: 
  title: 
  mainImage: {fileID: 21300000, guid: bdf6b5e745898f244b00974cd2bc41e9, type: 3}
  mainText: 
  isFourAnswerTask: 0
  btnAnswerTextArray: []
  btnAnswerSpriteArray: []
  isInputAnswerTask: 0
  answer: 
  hint: 
  solvedTask: 
  solvedTaskImage: {fileID: 0}
